ARI
…
compare_ari <- p_ari %>%
  left_join(billato_long, by = c("dataset", "method", "best_for")) %>%
  mutate(
    method = factor(method, levels = names(met_cols)),
    best_for = factor(as.character(best_for), levels = c("leiden", "louvain")),
    dataset = factor(dataset, levels = names(dataset_cols))
  ) %>%
  arrange(method, dataset, best_for)

compare_ari

## # A tibble: 30 × 5
##    dataset method   best_for our_ari billato_ari
##    <fct>   <fct>    <fct>      <dbl>       <dbl>
##  1 sc-mix  seurat   leiden     0.974       0.979
##  2 sc-mix  seurat   louvain    0.974       0.980
##  3 cb      seurat   leiden     0.910       0.865
##  4 cb      seurat   louvain    0.907       0.876
##  5 be1     seurat   leiden     0.925       0.681
##  6 be1     seurat   louvain    0.927       0.672
##  7 sc-mix  scrapper leiden     0.972       0.963
##  8 sc-mix  scrapper louvain    0.972       0.963
##  9 cb      scrapper leiden     0.844       0.806
## 10 cb      scrapper louvain    0.844       0.802
## # ℹ 20 more rows
…
